sim/dump.vcd
$date
	Wed Apr  1 21:47:18 2026
$end
$version
	Icarus Verilog
$end
$timescale
	1s
$end
$scope module tb_vending $end
$var wire 1 ! dispense $end
$var wire 1 " change $end
$var reg 1 # clk $end
$var reg 1 $ coin_10 $end
$var reg 1 % coin_5 $end
$var reg 1 & reset $end
$scope module uut $end
$var wire 1 # clk $end
$var wire 1 $ coin_10 $end
$var wire 1 % coin_5 $end
$var wire 1 & reset $end
$var reg 1 " change $end
$var reg 3 ' current_state [2:0] $end
$var reg 1 ! dispense $end
$var reg 3 ( next_state [2:0] $end
$upscope $end
$upscope $end
$enddefinitions $end
$comment Show the parameter values. $end
$dumpall
$end
#0
$dumpvars
b0 (
b0 '
1&
0%
0$
0#
0"
0!
$end
#5
1#
#10
0#
0&
#15
1#
#20
b1 (
0#
1%
#25
b10 (
b1 '
1#
#30
b1 (
0#
0%
#35
1#
#40
b11 (
0#
1$
#45
1!
b0 (
b11 '
1#
#50
b0 (
0#
0$
#55
0!
b0 '
1#
#60
0#
#65
1#
#70
b10 (
0#
1$
#75
b100 (
b10 '
1#
#80
b10 (
0#
0$
#85
1#
#90
b100 (
0#
1$
#95
1"
1!
b0 (
b100 '
1#
#100
b0 (
0#
0$
#105
0"
0!
b0 '
1#
